G04                                                                  *
G04 SOURCE        : LAYO1 PCB.EXE VERSION 10                         *
G04 FORMAT        : GERBER RS-274X, Inch, 2.4, Leading Zero          *
G04 TITLE         : GCA_PI08_SIGNAL TOP                              *
G04 TIME          : Friday, June 22, 2018  19:22:26                  *
G04                                                                  *
G04 Board width   :  68.580 mm. =  2.7000 inch                       *
G04 Board height  :  62.230 mm. =  2.4500 inch                       *
G04 Board offset  :   0.000 mm. =  0.0000 inch                       *
G04 Board offset  :   0.000 mm. =  0.0000 inch                       *
G04                                                                  *
G04 Apertures:                                                       *
G04       Type          X       Y             X       Y        Used  *
G04                      Inches                Metric                *
G04 D10   Draw        0.0079  0.0079        0.200   0.200         5  *
G04 D11   Round       0.2118  0.2118        5.380   5.380         8  *
G04 D12   Round       0.2370  0.2370        6.020   6.020         4  *
G04 D13   Round       0.0622  0.0622        1.580   1.580        60  *
G04 D14   Round       0.0874  0.0874        2.220   2.220        73  *
G04 D15   Round       0.1118  0.1118        2.840   2.840         4  *
G04 D16   Draw        0.0125  0.0125        0.318   0.318        47  *
G04 D17   Octagon!    0.0622  0.0996        1.580   2.530         9  *
G04 D18   Draw        0.0375  0.0375        0.953   0.953        90  *
G04 D19   Draw        0.0625  0.0625        1.588   1.588        25  *
G04 D20   Draw        0.0875  0.0875        2.223   2.223        35  *
G04 D21   Round       0.0394  0.0394        1.000   1.000         3  *
G04                                                                  *
%FSLAX24Y24*
MOIN*
SFA1.0B1.0*%
%AMCUSTOM17*
4,1,8,
-0.0156,0.0311,
0.0156,0.0311,
0.0311,0.0156,
0.0311,-0.0530,
0.0156,-0.0685,
-0.0156,-0.0685,
-0.0311,-0.0530,
-0.0311,0.0156,
-0.0156,0.0311,
0.0
*%
%ADD10C,0.0079*%
%ADD11C,0.2118*%
%ADD12C,0.2370*%
%ADD13C,0.0622*%
%ADD14C,0.0874*%
%ADD15C,0.1118*%
%ADD16C,0.0125*%
%ADD17CUSTOM17*%
%ADD18C,0.0375*%
%ADD19C,0.0625*%
%ADD20C,0.0875*%
%ADD21C,0.0394*%
%LNSIGNAL TOP*%
G54D10*
X000000Y024500D02*
X000000Y000000D01*
X027000Y000000D01*
X027000Y024500D01*
X000000Y024500D01*
G54D11*
X015250Y001938D03*
X019750Y001938D03*
X015500Y001938D03*
X019500Y001938D03*
X008250Y001938D03*
X012750Y001938D03*
X008500Y001938D03*
X012500Y001938D03*
G54D12*
X001500Y001563D03*
X025500Y001500D03*
X025500Y023000D03*
X001500Y023000D03*
G54D13*
X001125Y018000D03*
X002250Y018063D03*
X001125Y017000D03*
X002250Y017063D03*
X001125Y016000D03*
X002250Y016063D03*
X001125Y015000D03*
X002250Y015063D03*
X001125Y014000D03*
X002250Y014063D03*
X001125Y013000D03*
X002250Y013063D03*
X001125Y012000D03*
X002250Y012063D03*
X001125Y011000D03*
X002250Y011063D03*
X016250Y008000D03*
X025875Y011063D03*
X024625Y011063D03*
X025875Y012063D03*
X024625Y012063D03*
X025875Y013063D03*
X024625Y013063D03*
X025875Y014063D03*
X024625Y014063D03*
X025875Y015063D03*
X024625Y015063D03*
X025875Y016063D03*
X024625Y016063D03*
X025875Y017063D03*
X024625Y017063D03*
X025875Y018063D03*
X024625Y018063D03*
X003250Y018063D03*
X003250Y017063D03*
X003250Y016063D03*
X003250Y015063D03*
X003250Y014063D03*
X003250Y013063D03*
X003250Y012063D03*
X003250Y011063D03*
X021250Y005000D03*
X022000Y002500D03*
X023625Y011063D03*
X023625Y012063D03*
X023625Y013063D03*
X023625Y014063D03*
X023625Y015063D03*
X023625Y016063D03*
X023625Y017063D03*
X023625Y018063D03*
X001125Y019000D03*
X025875Y019063D03*
X024375Y007375D03*
X023000Y002500D03*
X013375Y007375D03*
X024375Y005375D03*
X021250Y008000D03*
X019250Y008000D03*
X014375Y007375D03*
G54D14*
X015375Y008875D03*
X001031Y006938D03*
X002250Y009188D03*
X001031Y009938D03*
X005875Y017063D03*
X009875Y016875D03*
X009875Y015875D03*
X005875Y016063D03*
X009875Y014875D03*
X005875Y015063D03*
X009875Y013875D03*
X005875Y014063D03*
X009875Y012875D03*
X005875Y013063D03*
X009875Y011875D03*
X005875Y012063D03*
X009875Y010875D03*
X005875Y011063D03*
X009875Y009875D03*
X005875Y010063D03*
X011375Y008875D03*
X017750Y004438D03*
X010750Y004438D03*
X012375Y008875D03*
X016750Y004438D03*
X009750Y004438D03*
X016875Y009875D03*
X020875Y012063D03*
X009000Y022500D03*
X016875Y010875D03*
X020875Y013063D03*
X010000Y022500D03*
X016875Y011875D03*
X020875Y014063D03*
X011000Y022500D03*
X016875Y012875D03*
X020875Y015063D03*
X012000Y022500D03*
X016875Y013875D03*
X020875Y016063D03*
X013000Y022500D03*
X016875Y014875D03*
X020875Y017063D03*
X014000Y022500D03*
X016875Y015875D03*
X020875Y018063D03*
X015000Y022500D03*
X016875Y016875D03*
X020875Y019063D03*
X016000Y022500D03*
X015750Y004438D03*
X017250Y005438D03*
X018250Y005438D03*
X019250Y005438D03*
X008750Y004438D03*
X010250Y005438D03*
X011250Y005438D03*
X012250Y005438D03*
X005875Y019063D03*
X020875Y010063D03*
X018000Y021500D03*
X002250Y008188D03*
X013375Y008875D03*
X005875Y018063D03*
X020875Y011063D03*
X017000Y022500D03*
X018000Y022500D03*
X014375Y008875D03*
X016250Y005438D03*
X018750Y004438D03*
X009250Y005438D03*
X011750Y004438D03*
X002250Y007188D03*
G54D15*
X004000Y005000D03*
X001000Y005000D03*
X002500Y005000D03*
X005500Y005000D03*
G54D16*
X015375Y008875D02*
X015375Y008000D01*
X011125Y008000D01*
X010719Y008406D01*
X008844Y008406D01*
X006281Y005844D01*
X004781Y005844D01*
X004000Y005063D01*
X004000Y005000D01*
X016250Y008000D02*
X015375Y008000D01*
X015125Y008000D01*
X009000Y022500D02*
X009500Y022000D01*
X009500Y020625D01*
X010000Y022500D02*
X010500Y022000D01*
X010500Y020625D01*
X011000Y022500D02*
X011500Y022000D01*
X011500Y020500D01*
X012000Y022500D02*
X012500Y022000D01*
X012500Y020500D01*
X013000Y022500D02*
X013500Y022000D01*
X013500Y020500D01*
X014000Y022500D02*
X014500Y022000D01*
X014500Y020500D01*
X015000Y022500D02*
X015500Y022000D01*
X015500Y020625D01*
X016000Y022500D02*
X016500Y022000D01*
X016500Y020500D01*
X005500Y005000D02*
X006656Y005000D01*
X007406Y005750D01*
X007406Y006438D01*
X009031Y008063D01*
X010531Y008063D01*
X011156Y007438D01*
X013438Y007438D01*
X013375Y007375D01*
X010313Y007438D02*
X009813Y007438D01*
G54D17*
X009000Y021500D03*
X010000Y021500D03*
X011000Y021500D03*
X012000Y021500D03*
X013000Y021500D03*
X014000Y021500D03*
X015000Y021500D03*
X016000Y021500D03*
X017000Y021500D03*
G54D18*
X021250Y005000D02*
X021250Y003250D01*
X022000Y002500D01*
X022063Y002500D01*
X016750Y004438D02*
X016750Y003813D01*
X016500Y003563D01*
X010063Y003563D01*
X009750Y003875D01*
X009750Y004438D01*
X009500Y020625D02*
X009500Y019875D01*
X012750Y016625D01*
X012750Y011750D01*
X014625Y009875D01*
X016875Y009875D01*
X010500Y020625D02*
X010500Y019875D01*
X013313Y017063D01*
X013313Y012250D01*
X014688Y010875D01*
X016875Y010875D01*
X011500Y020500D02*
X011500Y019875D01*
X013813Y017563D01*
X013813Y012875D01*
X014813Y011875D01*
X016875Y011875D01*
X012500Y020500D02*
X012500Y019875D01*
X014375Y018000D01*
X014375Y013375D01*
X014875Y012875D01*
X016875Y012875D01*
X013500Y020500D02*
X013500Y019875D01*
X014938Y018438D01*
X014938Y014375D01*
X015438Y013875D01*
X016875Y013875D01*
X014500Y020500D02*
X014500Y019875D01*
X015500Y018875D01*
X015500Y015375D01*
X016000Y014875D01*
X016875Y014875D01*
X015500Y020625D02*
X015500Y019875D01*
X016063Y019313D01*
X016063Y016188D01*
X016375Y015875D01*
X016875Y015875D01*
X016500Y020500D02*
X016500Y019875D01*
X016875Y019500D01*
X016875Y016875D01*
X024375Y005438D02*
X024375Y004438D01*
X023000Y003063D01*
X023000Y002563D01*
X009664Y008953D02*
X010070Y008953D01*
X010977Y009859D01*
X010977Y009922D01*
X018750Y004438D02*
X019500Y004438D01*
X020125Y005063D01*
X020125Y005813D01*
X019625Y006313D01*
X019250Y006313D01*
X016750Y006313D01*
X016250Y005813D01*
X016250Y005438D01*
X016250Y005438D02*
X015000Y005438D01*
X014000Y004438D01*
X011750Y004438D01*
X015063Y005438D02*
X014188Y006313D01*
X014125Y006313D01*
X009250Y006313D01*
X009250Y005438D01*
X014375Y007375D02*
X014375Y006875D01*
X014125Y006625D01*
X014125Y006375D01*
X019250Y008000D02*
X019250Y006375D01*
X021250Y008000D02*
X019250Y008000D01*
G54D19*
X017000Y021500D02*
X018000Y021500D01*
X019250Y020250D01*
X019250Y010750D01*
X020000Y010000D01*
X020875Y010000D01*
X002250Y008188D02*
X003375Y008188D01*
X004125Y008938D01*
X004125Y018625D01*
X004563Y019063D01*
X005938Y019063D01*
X020875Y011063D02*
X020938Y011000D01*
X022500Y011000D01*
X018000Y022500D02*
X016938Y022500D01*
X006883Y008953D02*
X009664Y008953D01*
X010313Y007438D02*
X009813Y007438D01*
X009250Y007438D01*
X009250Y007438D02*
X009250Y006313D01*
X009250Y005438D01*
G54D20*
X002500Y005000D02*
X002500Y005625D01*
X005625Y008750D01*
X006688Y008750D01*
X006883Y008945D01*
X006883Y008945D01*
X006945Y009008D01*
X007023Y009086D01*
X007125Y009188D01*
X007125Y009188D01*
X007125Y018063D01*
X005938Y018063D01*
X007125Y018063D02*
X007125Y022813D01*
X008125Y023813D01*
X017500Y023813D01*
X018000Y023313D01*
X018000Y022500D01*
X024375Y005375D02*
X023563Y005375D01*
X022438Y006500D01*
X022438Y011000D01*
X022438Y020000D01*
X019875Y022563D01*
X018000Y022563D01*
X007125Y018063D02*
X010188Y018063D01*
X011688Y016563D01*
X011688Y010281D01*
X012469Y010281D01*
X013375Y009375D01*
X013375Y008875D01*
X010977Y009922D02*
X011289Y010234D01*
X011695Y010234D01*
G54D21*
X010313Y007438D03*
X009250Y007438D03*
X009813Y007438D03*
M02*
