G04                                                                  *
G04 SOURCE        : LAYO1 PCB.EXE VERSION 10                         *
G04 FORMAT        : GERBER RS-274X, Inch, 2.4, Leading Zero          *
G04 TITLE         : GCA_PI08_SILKSCREEN TOP                          *
G04 TIME          : Friday, June 22, 2018  19:22:26                  *
G04                                                                  *
G04 Board width   :  68.580 mm. =  2.7000 inch                       *
G04 Board height  :  62.230 mm. =  2.4500 inch                       *
G04 Board offset  :   0.000 mm. =  0.0000 inch                       *
G04 Board offset  :   0.000 mm. =  0.0000 inch                       *
G04                                                                  *
G04 Apertures:                                                       *
G04       Type          X       Y             X       Y        Used  *
G04                      Inches                Metric                *
G04 D10   Draw        0.0079  0.0079        0.200   0.200      1358  *
G04                                                                  *
%FSLAX24Y24*
MOIN*
SFA1.0B1.0*%
%ADD10C,0.0079*%
%LNSILKSCREEN TOP*%
G54D10*
X000000Y024500D02*
X000000Y000000D01*
X027000Y000000D01*
X027000Y024500D01*
X000000Y024500D01*
X008375Y019875D02*
X018375Y019875D01*
X018375Y007375D01*
X008375Y007375D01*
X008375Y019875D01*
X021250Y007500D02*
X020875Y007500D01*
X020875Y005500D01*
X021625Y005500D01*
X021625Y007500D01*
X021250Y007500D01*
X021250Y007625D01*
X021250Y005500D02*
X021250Y005375D01*
X018750Y008000D02*
X018750Y008375D01*
X016750Y008375D01*
X016750Y007625D01*
X018750Y007625D01*
X018750Y008000D01*
X018875Y008000D01*
X016750Y008000D02*
X016625Y008000D01*
X000281Y006469D02*
X006219Y006469D01*
X006219Y003531D01*
X000281Y003531D01*
X000281Y006469D01*
X000813Y004000D02*
X001219Y004000D01*
X001219Y003531D01*
X000813Y003531D01*
X000813Y004000D01*
X002313Y004000D02*
X002719Y004000D01*
X002719Y003531D01*
X002313Y003531D01*
X002313Y004000D01*
X003781Y004000D02*
X004188Y004000D01*
X004188Y003531D01*
X003781Y003531D01*
X003781Y004000D01*
X005344Y004000D02*
X005750Y004000D01*
X005750Y003531D01*
X005344Y003531D01*
X005344Y004000D01*
X022500Y001500D02*
X022758Y001531D01*
X023000Y001633D01*
X023211Y001797D01*
X023211Y003188D01*
X023000Y003367D01*
X022758Y003469D01*
X022500Y003500D01*
X022242Y003469D01*
X022000Y003367D01*
X021789Y003203D01*
X021633Y003000D01*
X021531Y002758D01*
X021500Y002500D01*
X021531Y002242D01*
X021633Y002000D01*
X021797Y001789D01*
X022000Y001633D01*
X022242Y001531D01*
X022500Y001500D01*
X007250Y019563D02*
X007250Y009563D01*
X004875Y009563D01*
X004875Y019563D01*
X007250Y019563D01*
X005125Y019063D02*
X005125Y010063D01*
X005125Y019063D01*
X005125Y019063D02*
X005125Y010063D01*
X004875Y010063D01*
X004875Y019063D01*
X005125Y019063D01*
X019500Y009563D02*
X019500Y019563D01*
X021875Y019563D01*
X021875Y009563D01*
X019500Y009563D01*
X021625Y010063D02*
X021625Y019063D01*
X021625Y010063D01*
X021625Y010063D02*
X021625Y019063D01*
X021875Y019063D01*
X021875Y010063D01*
X021625Y010063D01*
X014500Y006438D02*
X020500Y006438D01*
X020500Y-001938D01*
X014500Y-001938D01*
X014500Y006438D01*
X014500Y-000688D02*
X014125Y-000688D01*
X014125Y-000813D01*
X014500Y-001063D01*
X020500Y-000688D02*
X020875Y-000688D01*
X020875Y-000813D01*
X020500Y-001063D01*
X007500Y006438D02*
X013500Y006438D01*
X013500Y-001938D01*
X007500Y-001938D01*
X007500Y006438D01*
X007500Y-000688D02*
X007125Y-000688D01*
X007125Y-000813D01*
X007500Y-001063D01*
X013500Y-000688D02*
X013875Y-000688D01*
X013875Y-000813D01*
X013500Y-001063D01*
X001313Y019500D02*
X000938Y019500D01*
X000750Y019313D01*
X000750Y010625D01*
X001500Y010625D01*
X001500Y019313D01*
X001313Y019500D01*
X001219Y020172D02*
X000906Y019859D01*
X000906Y020172D02*
X001219Y019859D01*
X001297Y020016D02*
X000828Y020016D01*
X001063Y020250D02*
X001063Y019781D01*
X026063Y019563D02*
X025688Y019563D01*
X025500Y019375D01*
X025500Y010688D01*
X026250Y010688D01*
X026250Y019375D01*
X026063Y019563D01*
X025969Y020234D02*
X025656Y019922D01*
X025656Y020234D02*
X025969Y019922D01*
X026047Y020078D02*
X025578Y020078D01*
X025813Y020313D02*
X025813Y019844D01*
X001750Y010563D02*
X001750Y018563D01*
X003750Y018563D01*
X003750Y010563D01*
X001750Y010563D01*
X025125Y018563D02*
X025125Y010563D01*
X023125Y010563D01*
X023125Y018563D01*
X025125Y018563D01*
X014000Y007875D02*
X014000Y006875D01*
X013750Y007875D02*
X013750Y006875D01*
X013750Y007375D02*
X013625Y007375D01*
X014000Y007375D02*
X014125Y007375D01*
X008500Y022000D02*
X009500Y022000D01*
X009500Y021000D01*
X008500Y021000D02*
X018500Y021000D01*
X018500Y023000D01*
X008500Y023000D01*
X008500Y021000D01*
X002750Y009688D02*
X002750Y006688D01*
X001750Y006688D01*
X001750Y009688D01*
X002750Y009688D01*
X002750Y008688D02*
X001750Y008688D01*
X001031Y009563D02*
X001031Y009313D01*
X001406Y009313D01*
X001406Y007563D01*
X000656Y007563D01*
X000656Y009313D01*
X001031Y009313D01*
X001031Y007563D02*
X001031Y007313D01*
X000656Y009000D02*
X001406Y009000D01*
X001406Y009188D02*
X000656Y009188D01*
X000656Y009063D01*
X001406Y009063D01*
X001406Y009125D01*
X000656Y009125D01*
X000656Y009250D01*
X001406Y009250D01*
X024750Y006438D02*
X024000Y006438D01*
X024000Y006563D01*
X024750Y006563D01*
X024750Y006438D01*
X024750Y006313D02*
X024000Y006313D01*
X024000Y006188D01*
X024750Y006188D01*
X024750Y006313D01*
X024375Y006563D02*
X024375Y007375D01*
X024375Y006188D02*
X024375Y005375D01*
X021875Y006375D02*
X021883Y006156D01*
X021914Y005938D01*
X021961Y005727D01*
X022023Y005523D01*
X022109Y005320D01*
X022211Y005125D01*
X022328Y004938D01*
X022461Y004766D01*
X022609Y004609D01*
X022766Y004461D01*
X022945Y004328D01*
X023125Y004211D01*
X023320Y004109D01*
X023523Y004023D01*
X023727Y003961D01*
X023945Y003914D01*
X024156Y003883D01*
X024375Y003875D01*
X024594Y003883D01*
X024813Y003914D01*
X025023Y003961D01*
X025234Y004023D01*
X025430Y004109D01*
X025625Y004211D01*
X025813Y004328D01*
X025984Y004461D01*
X026141Y004609D01*
X026289Y004773D01*
X026422Y004945D01*
X026539Y005125D01*
X026641Y005320D01*
X026727Y005523D01*
X026789Y005734D01*
X026836Y005945D01*
X026867Y006164D01*
X026875Y006375D01*
X026867Y006594D01*
X026836Y006813D01*
X026789Y007023D01*
X026727Y007234D01*
X026641Y007438D01*
X026539Y007625D01*
X026422Y007813D01*
X026289Y007984D01*
X026141Y008148D01*
X025977Y008289D01*
X025805Y008422D01*
X025625Y008539D01*
X025430Y008641D01*
X025227Y008727D01*
X025016Y008789D01*
X024805Y008836D01*
X024586Y008867D01*
X024367Y008875D01*
X024148Y008867D01*
X023938Y008836D01*
X023727Y008789D01*
X023516Y008719D01*
X023313Y008641D01*
X023117Y008539D01*
X022938Y008422D01*
X022766Y008289D01*
X022602Y008141D01*
X022453Y007977D01*
X022320Y007805D01*
X022211Y007617D01*
X022109Y007430D01*
X022023Y007227D01*
X021961Y007016D01*
X021914Y006805D01*
X021883Y006586D01*
X021875Y006367D01*
X025188Y007375D02*
X024813Y007375D01*
X025000Y007563D02*
X025000Y007188D01*
X022719Y001031D02*
X022719Y001406D01*
X022953Y001406D01*
X023000Y001359D01*
X023000Y001078D01*
X022953Y001031D01*
X022719Y001031D01*
X023094Y001031D02*
X023188Y001031D01*
X023141Y001031D02*
X023141Y001406D01*
X023094Y001359D01*
X006219Y009156D02*
X006219Y009109D01*
X006266Y009063D01*
X006453Y009063D01*
X006500Y009109D01*
X006500Y009438D01*
X006406Y009438D01*
X006594Y009063D02*
X006688Y009063D01*
X006641Y009063D02*
X006641Y009438D01*
X006594Y009391D01*
X020250Y009031D02*
X020250Y008984D01*
X020297Y008938D01*
X020484Y008938D01*
X020531Y008984D01*
X020531Y009313D01*
X020438Y009313D01*
X020906Y008938D02*
X020625Y008938D01*
X020625Y009031D01*
X020719Y009125D01*
X020859Y009125D01*
X020906Y009172D01*
X020906Y009266D01*
X020859Y009313D01*
X020672Y009313D01*
X020625Y009266D01*
X016938Y006844D02*
X016938Y006797D01*
X016984Y006750D01*
X017172Y006750D01*
X017219Y006797D01*
X017219Y007125D01*
X017125Y007125D01*
X017547Y006750D02*
X017547Y007125D01*
X017453Y007125D01*
X017313Y006984D01*
X017313Y006891D01*
X017594Y006891D01*
X010313Y006781D02*
X010313Y006734D01*
X010359Y006688D01*
X010547Y006688D01*
X010594Y006734D01*
X010594Y007063D01*
X010500Y007063D01*
X010969Y007063D02*
X010688Y007063D01*
X010688Y006875D01*
X010922Y006875D01*
X010969Y006828D01*
X010969Y006734D01*
X010922Y006688D01*
X010734Y006688D01*
X010688Y006734D01*
X000531Y020438D02*
X000531Y020813D01*
X000766Y020813D01*
X000813Y020766D01*
X000813Y020672D01*
X000766Y020625D01*
X000531Y020625D01*
X000625Y020625D02*
X000813Y020438D01*
X000906Y020438D02*
X000906Y020813D01*
X001141Y020813D01*
X001188Y020766D01*
X001188Y020672D01*
X001141Y020625D01*
X000906Y020625D01*
X001281Y020438D02*
X001375Y020438D01*
X001328Y020438D02*
X001328Y020813D01*
X001281Y020766D01*
X025375Y010125D02*
X025375Y010500D01*
X025609Y010500D01*
X025656Y010453D01*
X025656Y010359D01*
X025609Y010313D01*
X025375Y010313D01*
X025469Y010313D02*
X025656Y010125D01*
X025750Y010125D02*
X025750Y010500D01*
X025984Y010500D01*
X026031Y010453D01*
X026031Y010359D01*
X025984Y010313D01*
X025750Y010313D01*
X026406Y010125D02*
X026125Y010125D01*
X026125Y010219D01*
X026219Y010313D01*
X026359Y010313D01*
X026406Y010359D01*
X026406Y010453D01*
X026359Y010500D01*
X026172Y010500D01*
X026125Y010453D01*
X002469Y019250D02*
X002469Y018875D01*
X002750Y018875D01*
X002844Y018875D02*
X002844Y019250D01*
X003078Y019250D01*
X003125Y019203D01*
X003125Y019133D01*
X003078Y019086D01*
X002844Y019086D01*
X003078Y019086D02*
X003125Y019039D01*
X003125Y018922D01*
X003078Y018875D01*
X002844Y018875D01*
X003219Y018875D02*
X003313Y018875D01*
X003266Y018875D02*
X003266Y019250D01*
X003219Y019203D01*
X023688Y019125D02*
X023688Y018750D01*
X023969Y018750D01*
X024063Y018750D02*
X024063Y019125D01*
X024297Y019125D01*
X024344Y019078D01*
X024344Y019008D01*
X024297Y018961D01*
X024063Y018961D01*
X024297Y018961D02*
X024344Y018914D01*
X024344Y018797D01*
X024297Y018750D01*
X024063Y018750D01*
X024719Y018750D02*
X024438Y018750D01*
X024438Y018844D01*
X024531Y018938D01*
X024672Y018938D01*
X024719Y018984D01*
X024719Y019078D01*
X024672Y019125D01*
X024484Y019125D01*
X024438Y019078D01*
X008000Y023500D02*
X019000Y023500D01*
X019000Y020625D01*
X014000Y020625D01*
X014000Y021000D01*
X013000Y021000D01*
X013000Y020625D01*
X008000Y020625D01*
X008000Y023500D01*
X008594Y007938D02*
X008594Y007609D01*
X008641Y007563D01*
X008828Y007563D01*
X008875Y007609D01*
X008875Y007938D02*
X008875Y007563D01*
X008969Y007563D02*
X009063Y007563D01*
X009016Y007563D02*
X009016Y007938D01*
X008969Y007891D01*
X021063Y006719D02*
X021438Y006719D01*
X021438Y006484D01*
X021391Y006438D01*
X021297Y006438D01*
X021250Y006484D01*
X021250Y006719D01*
X021250Y006625D02*
X021063Y006438D01*
X021063Y006344D02*
X021063Y006250D01*
X021063Y006297D02*
X021438Y006297D01*
X021391Y006344D01*
X017188Y007813D02*
X017188Y008188D01*
X017422Y008188D01*
X017469Y008141D01*
X017469Y008047D01*
X017422Y008000D01*
X017188Y008000D01*
X017281Y008000D02*
X017469Y007813D01*
X017844Y007813D02*
X017563Y007813D01*
X017563Y007906D01*
X017656Y008000D01*
X017797Y008000D01*
X017844Y008047D01*
X017844Y008141D01*
X017797Y008188D01*
X017609Y008188D01*
X017563Y008141D01*
X006250Y006531D02*
X006250Y006484D01*
X006297Y006438D01*
X006484Y006438D01*
X006531Y006484D01*
X006531Y006813D01*
X006438Y006813D01*
X006625Y006766D02*
X006672Y006813D01*
X006859Y006813D01*
X006906Y006766D01*
X006906Y006672D01*
X006859Y006625D01*
X006719Y006625D01*
X006859Y006625D02*
X006906Y006578D01*
X006906Y006484D01*
X006859Y006438D01*
X006672Y006438D01*
X006625Y006484D01*
X005969Y014844D02*
X005922Y014844D01*
X005875Y014797D01*
X005875Y014609D01*
X005922Y014563D01*
X006250Y014563D01*
X006250Y014656D01*
X005875Y014469D02*
X005875Y014375D01*
X005875Y014422D02*
X006250Y014422D01*
X006203Y014469D01*
X020594Y014938D02*
X020547Y014938D01*
X020500Y014891D01*
X020500Y014703D01*
X020547Y014656D01*
X020875Y014656D01*
X020875Y014750D01*
X020500Y014281D02*
X020500Y014563D01*
X020594Y014563D01*
X020688Y014469D01*
X020688Y014328D01*
X020734Y014281D01*
X020828Y014281D01*
X020875Y014328D01*
X020875Y014516D01*
X020828Y014563D01*
X025688Y014188D02*
X026063Y014188D01*
X026063Y013953D01*
X026016Y013906D01*
X025922Y013906D01*
X025875Y013953D01*
X025875Y014188D01*
X025875Y014094D02*
X025688Y013906D01*
X025688Y013813D02*
X026063Y013813D01*
X026063Y013578D01*
X026016Y013531D01*
X025922Y013531D01*
X025875Y013578D01*
X025875Y013813D01*
X025688Y013156D02*
X025688Y013438D01*
X025781Y013438D01*
X025875Y013344D01*
X025875Y013203D01*
X025922Y013156D01*
X026016Y013156D01*
X026063Y013203D01*
X026063Y013391D01*
X026016Y013438D01*
X024313Y015125D02*
X023938Y015125D01*
X023938Y014844D01*
X023938Y014750D02*
X024313Y014750D01*
X024313Y014516D01*
X024266Y014469D01*
X024195Y014469D01*
X024148Y014516D01*
X024148Y014750D01*
X024148Y014516D02*
X024102Y014469D01*
X023984Y014469D01*
X023938Y014516D01*
X023938Y014750D01*
X023938Y014094D02*
X023938Y014375D01*
X024031Y014375D01*
X024125Y014281D01*
X024125Y014141D01*
X024172Y014094D01*
X024266Y014094D01*
X024313Y014141D01*
X024313Y014328D01*
X024266Y014375D01*
X015125Y006984D02*
X015078Y006938D01*
X014891Y006938D01*
X014844Y006984D01*
X014844Y007266D01*
X014891Y007313D01*
X015078Y007313D01*
X015125Y007266D01*
X015219Y006938D02*
X015313Y006938D01*
X015266Y006938D02*
X015266Y007313D01*
X015219Y007266D01*
X006750Y021906D02*
X006750Y021859D01*
X006797Y021813D01*
X006984Y021813D01*
X007031Y021859D01*
X007031Y022188D01*
X006938Y022188D01*
X007359Y022188D02*
X007219Y022188D01*
X007125Y022094D01*
X007125Y021859D01*
X007172Y021813D01*
X007359Y021813D01*
X007406Y021859D01*
X007406Y021953D01*
X007359Y022000D01*
X007125Y022000D01*
X004000Y017813D02*
X004125Y017813D01*
X004063Y017813D02*
X004063Y018313D01*
X004000Y018250D01*
X004250Y016813D02*
X003875Y016813D01*
X003875Y016938D01*
X004000Y017063D01*
X004188Y017063D01*
X004250Y017125D01*
X004250Y017250D01*
X004188Y017313D01*
X003938Y017313D01*
X003875Y017250D01*
X003875Y016250D02*
X003938Y016313D01*
X004188Y016313D01*
X004250Y016250D01*
X004250Y016125D01*
X004188Y016063D01*
X004000Y016063D01*
X004188Y016063D02*
X004250Y016000D01*
X004250Y015875D01*
X004188Y015813D01*
X003938Y015813D01*
X003875Y015875D01*
X004188Y014813D02*
X004188Y015313D01*
X004063Y015313D01*
X003875Y015125D01*
X003875Y015000D01*
X004250Y015000D01*
X004250Y014313D02*
X003875Y014313D01*
X003875Y014063D01*
X004188Y014063D01*
X004250Y014000D01*
X004250Y013875D01*
X004188Y013813D01*
X003938Y013813D01*
X003875Y013875D01*
X004188Y013313D02*
X004000Y013313D01*
X003875Y013188D01*
X003875Y012875D01*
X003938Y012813D01*
X004188Y012813D01*
X004250Y012875D01*
X004250Y013000D01*
X004188Y013063D01*
X003875Y013063D01*
X003875Y012125D02*
X003875Y012188D01*
X004250Y012188D01*
X004250Y012063D01*
X004000Y011813D01*
X004000Y011688D01*
X003938Y011063D02*
X003875Y011000D01*
X003875Y010875D01*
X003938Y010813D01*
X004188Y010813D01*
X004250Y010875D01*
X004250Y011000D01*
X004188Y011063D01*
X003938Y011063D01*
X003875Y011125D01*
X003875Y011250D01*
X003938Y011313D01*
X004188Y011313D01*
X004250Y011250D01*
X004250Y011125D01*
X004188Y011063D01*
X022563Y010813D02*
X022750Y010813D01*
X022875Y010938D01*
X022875Y011250D01*
X022813Y011313D01*
X022563Y011313D01*
X022500Y011250D01*
X022500Y011125D01*
X022563Y011063D01*
X022875Y011063D01*
X022375Y011813D02*
X022500Y011813D01*
X022438Y011813D02*
X022438Y012313D01*
X022375Y012250D01*
X022688Y011813D02*
X022625Y011875D01*
X022625Y012250D01*
X022688Y012313D01*
X022938Y012313D01*
X023000Y012250D01*
X023000Y011875D01*
X022938Y011813D01*
X022688Y011813D01*
X022625Y011875D02*
X023000Y012250D01*
X022375Y012813D02*
X022500Y012813D01*
X022438Y012813D02*
X022438Y013313D01*
X022375Y013250D01*
X022625Y012813D02*
X022750Y012813D01*
X022688Y012813D02*
X022688Y013313D01*
X022625Y013250D01*
X022375Y012813D02*
X022500Y012813D01*
X022438Y012813D02*
X022438Y013313D01*
X022375Y013250D01*
X022625Y012813D02*
X022750Y012813D01*
X022688Y012813D02*
X022688Y013313D01*
X022625Y013250D01*
X022375Y013813D02*
X022500Y013813D01*
X022438Y013813D02*
X022438Y014313D01*
X022375Y014250D01*
X023000Y013813D02*
X022625Y013813D01*
X022625Y013938D01*
X022750Y014063D01*
X022938Y014063D01*
X023000Y014125D01*
X023000Y014250D01*
X022938Y014313D01*
X022688Y014313D01*
X022625Y014250D01*
X022375Y014813D02*
X022500Y014813D01*
X022438Y014813D02*
X022438Y015313D01*
X022375Y015250D01*
X022625Y015250D02*
X022688Y015313D01*
X022938Y015313D01*
X023000Y015250D01*
X023000Y015125D01*
X022938Y015063D01*
X022750Y015063D01*
X022938Y015063D02*
X023000Y015000D01*
X023000Y014875D01*
X022938Y014813D01*
X022688Y014813D01*
X022625Y014875D01*
X022375Y015813D02*
X022500Y015813D01*
X022438Y015813D02*
X022438Y016313D01*
X022375Y016250D01*
X022938Y015813D02*
X022938Y016313D01*
X022813Y016313D01*
X022625Y016125D01*
X022625Y016000D01*
X023000Y016000D01*
X022375Y016813D02*
X022500Y016813D01*
X022438Y016813D02*
X022438Y017313D01*
X022375Y017250D01*
X023000Y017313D02*
X022625Y017313D01*
X022625Y017063D01*
X022938Y017063D01*
X023000Y017000D01*
X023000Y016875D01*
X022938Y016813D01*
X022688Y016813D01*
X022625Y016875D01*
X022375Y017813D02*
X022500Y017813D01*
X022438Y017813D02*
X022438Y018313D01*
X022375Y018250D01*
X022938Y018313D02*
X022750Y018313D01*
X022625Y018188D01*
X022625Y017875D01*
X022688Y017813D01*
X022938Y017813D01*
X023000Y017875D01*
X023000Y018000D01*
X022938Y018063D01*
X022625Y018063D01*
X007875Y023625D02*
X019125Y023625D01*
X019125Y020500D01*
X014000Y020500D01*
X014000Y021000D01*
X013000Y021000D01*
X013000Y020500D01*
X007875Y020500D01*
X007875Y023625D01*
X003313Y020766D02*
X003531Y020766D01*
X003531Y020547D01*
X003422Y020438D01*
X002984Y020438D01*
X002875Y020547D01*
X002875Y021203D01*
X002984Y021313D01*
X003422Y021313D01*
X003531Y021203D01*
X004406Y020547D02*
X004297Y020438D01*
X003859Y020438D01*
X003750Y020547D01*
X003750Y021203D01*
X003859Y021313D01*
X004297Y021313D01*
X004406Y021203D01*
X004625Y020438D02*
X004625Y020984D01*
X004953Y021313D01*
X005281Y020984D01*
X005281Y020438D01*
X004625Y020766D02*
X005281Y020766D01*
X020313Y020828D02*
X020531Y020828D01*
X020531Y020609D01*
X020422Y020500D01*
X019984Y020500D01*
X019875Y020609D01*
X019875Y021266D01*
X019984Y021375D01*
X020422Y021375D01*
X020531Y021266D01*
X021406Y020609D02*
X021297Y020500D01*
X020859Y020500D01*
X020750Y020609D01*
X020750Y021266D01*
X020859Y021375D01*
X021297Y021375D01*
X021406Y021266D01*
X021625Y020500D02*
X021625Y021047D01*
X021953Y021375D01*
X022281Y021047D01*
X022281Y020500D01*
X021625Y020828D02*
X022281Y020828D01*
X022500Y020445D02*
X023156Y020445D01*
X023375Y020500D02*
X023375Y021375D01*
X023922Y021375D01*
X024031Y021266D01*
X024031Y021047D01*
X023922Y020938D01*
X023375Y020938D01*
X024359Y020500D02*
X024359Y021375D01*
X024250Y021375D02*
X024469Y021375D01*
X024250Y020500D02*
X024469Y020500D01*
X024797Y020500D02*
X024688Y020609D01*
X024688Y021266D01*
X024797Y021375D01*
X025234Y021375D01*
X025344Y021266D01*
X025344Y020609D01*
X025234Y020500D01*
X024797Y020500D01*
X024688Y020609D02*
X025344Y021266D01*
X025672Y020938D02*
X025563Y020828D01*
X025563Y020609D01*
X025672Y020500D01*
X026109Y020500D01*
X026219Y020609D01*
X026219Y020828D01*
X026109Y020938D01*
X025672Y020938D01*
X025563Y021047D01*
X025563Y021266D01*
X025672Y021375D01*
X026109Y021375D01*
X026219Y021266D01*
X026219Y021047D01*
X026109Y020938D01*
X002625Y021563D02*
X005625Y021563D01*
X005625Y020188D01*
X002625Y020188D01*
X002625Y021563D01*
X019625Y021500D02*
X026500Y021500D01*
X026500Y020250D01*
X019625Y020250D01*
X019625Y021500D01*
X009953Y019125D02*
X009953Y019750D01*
X009875Y019750D02*
X010031Y019750D01*
X009875Y019125D02*
X010031Y019125D01*
X010188Y019125D02*
X010188Y019516D01*
X010188Y019438D02*
X010266Y019516D01*
X010500Y019516D01*
X010578Y019438D01*
X010578Y019125D01*
X011750Y019203D02*
X011672Y019125D01*
X011438Y019125D01*
X011359Y019203D01*
X011359Y019438D01*
X011438Y019516D01*
X011672Y019516D01*
X011750Y019438D01*
X011984Y019125D02*
X011906Y019203D01*
X011906Y019438D01*
X011984Y019516D01*
X012219Y019516D01*
X012297Y019438D01*
X012297Y019203D01*
X012219Y019125D01*
X011984Y019125D01*
X012531Y019125D02*
X012453Y019203D01*
X012453Y019438D01*
X012531Y019516D01*
X012766Y019516D01*
X012844Y019438D01*
X012844Y019203D01*
X012766Y019125D01*
X012531Y019125D01*
X013000Y018891D02*
X013000Y019516D01*
X013000Y019438D02*
X013078Y019516D01*
X013313Y019516D01*
X013391Y019438D01*
X013391Y019203D01*
X013313Y019125D01*
X013078Y019125D01*
X013000Y019203D01*
X013938Y019203D02*
X013859Y019125D01*
X013625Y019125D01*
X013547Y019203D01*
X013547Y019438D01*
X013625Y019516D01*
X013859Y019516D01*
X013938Y019438D01*
X013938Y019320D01*
X013547Y019320D01*
X014094Y019125D02*
X014094Y019516D01*
X014094Y019438D02*
X014172Y019516D01*
X014250Y019516D01*
X014328Y019438D01*
X014563Y019516D02*
X014797Y019516D01*
X014875Y019438D01*
X014875Y019125D01*
X014875Y019203D02*
X014797Y019125D01*
X014563Y019125D01*
X014484Y019203D01*
X014484Y019281D01*
X014563Y019359D01*
X014797Y019359D01*
X014875Y019281D01*
X015031Y019750D02*
X015031Y019203D01*
X015109Y019125D01*
X015266Y019125D01*
X015344Y019203D01*
X015031Y019516D02*
X015188Y019516D01*
X015500Y019125D02*
X015500Y019438D01*
X015500Y019516D02*
X015500Y019555D01*
X015734Y019125D02*
X015656Y019203D01*
X015656Y019438D01*
X015734Y019516D01*
X015969Y019516D01*
X016047Y019438D01*
X016047Y019203D01*
X015969Y019125D01*
X015734Y019125D01*
X016203Y019125D02*
X016203Y019516D01*
X016203Y019438D02*
X016281Y019516D01*
X016516Y019516D01*
X016594Y019438D01*
X016594Y019125D01*
X010375Y018516D02*
X010375Y018203D01*
X010453Y018125D01*
X010531Y018125D01*
X010609Y018203D01*
X010609Y018438D01*
X010609Y018203D02*
X010688Y018125D01*
X010766Y018125D01*
X010844Y018203D01*
X010844Y018516D01*
X011000Y018125D02*
X011000Y018438D01*
X011000Y018516D02*
X011000Y018555D01*
X011156Y018750D02*
X011156Y018203D01*
X011234Y018125D01*
X011391Y018125D01*
X011469Y018203D01*
X011156Y018516D02*
X011313Y018516D01*
X011625Y018750D02*
X011625Y018125D01*
X011625Y018438D02*
X011703Y018516D01*
X011938Y018516D01*
X012016Y018438D01*
X012016Y018125D01*
X012797Y018125D02*
X012797Y018750D01*
X013188Y018750D01*
X013266Y018672D01*
X013266Y018516D01*
X013188Y018438D01*
X012797Y018438D01*
X012953Y018438D02*
X013266Y018125D01*
X013500Y018125D02*
X013422Y018203D01*
X013422Y018438D01*
X013500Y018516D01*
X013734Y018516D01*
X013813Y018438D01*
X013813Y018203D01*
X013734Y018125D01*
X013500Y018125D01*
X014359Y018203D02*
X014281Y018125D01*
X014047Y018125D01*
X013969Y018203D01*
X013969Y018438D01*
X014047Y018516D01*
X014281Y018516D01*
X014359Y018438D01*
X014516Y018125D02*
X014516Y018516D01*
X014516Y018438D02*
X014594Y018516D01*
X014672Y018516D01*
X014750Y018438D01*
X014984Y018516D02*
X015219Y018516D01*
X015297Y018438D01*
X015297Y018125D01*
X015297Y018203D02*
X015219Y018125D01*
X014984Y018125D01*
X014906Y018203D01*
X014906Y018281D01*
X014984Y018359D01*
X015219Y018359D01*
X015297Y018281D01*
X015453Y018125D02*
X015453Y018438D01*
X015453Y018516D02*
X015453Y018555D01*
X015609Y018125D02*
X015766Y018125D01*
X015688Y018125D02*
X015688Y018750D01*
X015609Y018750D01*
X023125Y018625D02*
X022250Y018625D01*
X022250Y010625D01*
X023125Y010625D01*
X003750Y018625D02*
X004500Y018625D01*
X004500Y010500D01*
X003750Y010500D01*
X021750Y019000D02*
X021750Y010125D01*
X005000Y019000D02*
X005000Y010125D01*
X002250Y008625D02*
X002250Y008250D01*
X002938Y009313D02*
X003188Y009313D01*
X003188Y006938D01*
X002938Y006938D01*
X002938Y009313D01*
X002969Y009281D02*
X003156Y009281D01*
X003156Y008188D01*
X002969Y008188D01*
X002969Y009281D01*
X003000Y009250D02*
X003125Y009250D01*
X003125Y008219D01*
X003000Y008219D01*
X003000Y009250D01*
X003031Y009219D02*
X003094Y009219D01*
X003094Y008250D01*
X003031Y008250D01*
X003031Y009219D01*
X003063Y009188D02*
X003063Y008281D01*
X003391Y008828D02*
X003391Y008547D01*
X003250Y008688D02*
X003531Y008688D01*
X003625Y008875D02*
X003625Y008641D01*
X003766Y008500D01*
X003906Y008641D01*
X003906Y008875D01*
X004656Y006969D02*
X004406Y006969D01*
X004406Y009344D01*
X004656Y009344D01*
X004656Y006969D01*
X004625Y007000D02*
X004438Y007000D01*
X004438Y008094D01*
X004625Y008094D01*
X004625Y007000D01*
X004594Y007031D02*
X004469Y007031D01*
X004469Y008063D01*
X004594Y008063D01*
X004594Y007031D01*
X004563Y007063D02*
X004500Y007063D01*
X004500Y008031D01*
X004563Y008031D01*
X004563Y007063D01*
X004531Y007094D02*
X004531Y008000D01*
X002875Y009438D02*
X004063Y009438D01*
X004063Y006875D01*
X002875Y006875D01*
X002875Y009438D01*
X004250Y009438D02*
X005563Y009438D01*
X005563Y006844D01*
X004250Y006844D01*
X004250Y009438D01*
X005031Y007813D02*
X004750Y007813D01*
X004750Y007625D01*
X004984Y007625D01*
X005031Y007578D01*
X005031Y007484D01*
X004984Y007438D01*
X004797Y007438D01*
X004750Y007484D01*
X005125Y007813D02*
X005125Y007578D01*
X005266Y007438D01*
X005406Y007578D01*
X005406Y007813D01*
X001250Y008000D02*
X000875Y008000D01*
X000875Y008234D01*
X000922Y008281D01*
X001203Y008281D01*
X001250Y008234D01*
X001250Y008000D01*
X001250Y008656D02*
X001250Y008375D01*
X001156Y008375D01*
X001063Y008469D01*
X001063Y008609D01*
X001016Y008656D01*
X000922Y008656D01*
X000875Y008609D01*
X000875Y008422D01*
X000922Y008375D01*
X001813Y009969D02*
X001813Y009922D01*
X001859Y009875D01*
X002047Y009875D01*
X002094Y009922D01*
X002094Y010250D01*
X002000Y010250D01*
X002188Y009875D02*
X002188Y010250D01*
X002422Y010250D01*
X002469Y010203D01*
X002469Y010109D01*
X002422Y010063D01*
X002188Y010063D01*
X002563Y009875D02*
X002656Y009875D01*
X002609Y009875D02*
X002609Y010250D01*
X002563Y010203D01*
X000703Y003266D02*
X000703Y002984D01*
X000563Y003125D02*
X000844Y003125D01*
X001313Y003313D02*
X001313Y003078D01*
X001453Y002938D01*
X001594Y003078D01*
X001594Y003313D01*
X001734Y002938D02*
X001734Y003313D01*
X001688Y003313D02*
X001781Y003313D01*
X001688Y002938D02*
X001781Y002938D01*
X001875Y002938D02*
X001875Y003313D01*
X001875Y003266D02*
X002156Y002984D01*
X002156Y002938D02*
X002156Y003313D01*
X002625Y003125D02*
X002906Y003125D01*
X003891Y003266D02*
X003891Y002984D01*
X003750Y003125D02*
X004031Y003125D01*
X004734Y002938D02*
X004547Y002938D01*
X004500Y002984D01*
X004500Y003266D01*
X004547Y003313D01*
X004734Y003313D01*
X004781Y003266D01*
X004781Y002984D01*
X004734Y002938D01*
X005156Y002938D02*
X004875Y002938D01*
X004875Y003313D01*
X005156Y003313D01*
X004875Y003125D02*
X005109Y003125D01*
X005625Y003125D02*
X005906Y003125D01*
X024469Y009172D02*
X024422Y009125D01*
X024234Y009125D01*
X024188Y009172D01*
X024188Y009453D01*
X024234Y009500D01*
X024422Y009500D01*
X024469Y009453D01*
X024844Y009125D02*
X024563Y009125D01*
X024563Y009219D01*
X024656Y009313D01*
X024797Y009313D01*
X024844Y009359D01*
X024844Y009453D01*
X024797Y009500D01*
X024609Y009500D01*
X024563Y009453D01*
X004125Y000766D02*
X004125Y001391D01*
X004125Y001313D02*
X004203Y001391D01*
X004438Y001391D01*
X004516Y001313D01*
X004516Y001078D01*
X004438Y001000D01*
X004203Y001000D01*
X004125Y001078D01*
X004672Y001625D02*
X004672Y001000D01*
X004672Y001313D02*
X004750Y001391D01*
X004984Y001391D01*
X005063Y001313D01*
X005063Y001000D01*
X005609Y001078D02*
X005531Y001000D01*
X005297Y001000D01*
X005219Y001078D01*
X005219Y001313D01*
X005297Y001391D01*
X005531Y001391D01*
X005609Y001313D01*
X005609Y001391D02*
X005609Y000844D01*
X005531Y000766D01*
X005219Y000766D01*
X004000Y001813D02*
X005688Y001813D01*
X005688Y000625D01*
X004000Y000625D01*
X004000Y001813D01*
M02*
